<?xml version="1.0" encoding="utf-8"?>
<!-- Generator: Adobe Illustrator 21.1.0, SVG Export Plug-In . SVG Version: 6.00 Build 0)  -->
<svg version="1.1" id="Layer_1" xmlns="http://www.w3.org/2000/svg" xmlns:xlink="http://www.w3.org/1999/xlink" x="0px" y="0px"
	 viewBox="0 0 32 32" style="enable-background:new 0 0 32 32;" xml:space="preserve">
<style type="text/css">
	.st0{fill:#FFFFFF;}
</style>
<path class="st0" d="M10.1,14.5 M16.8,24.9l4.8,0c0.5,0,1,0,1.5,0V14.8H10.1l0,10.1c0.1,0,0.2,0,0.3,0l0.3,0l5,0L16.8,24.9z
	 M9.9,26.8c-0.4,0-0.9-0.2-1.2-0.5c-0.3-0.3-0.5-0.7-0.5-1.2c0-2.5,0-5.1,0-7.7l0-2.9c0-0.9,0.7-1.6,1.6-1.6h9.2c1.4,0,2.9,0,4.4,0
	c0.3,0,0.8,0,1.2,0.4v0c0.3,0.3,0.5,0.7,0.5,1.1c0,2.1,0,4.2,0,6.2l0,4.5c0,0.9-0.7,1.5-1.6,1.5l-6.7,0l-1.9,0
	C13.3,26.8,11.5,26.8,9.9,26.8"/>
<path class="st0" d="M9.9,12.2l-0.9,0l0-0.6c0-0.4,0.1-0.8,0.4-1c0.3-0.3,0.7-0.5,1.1-0.5l1.9,0c1.2,0,2.3,0,3.5,0l4.7,0
	c0.7,0,1.4,0,2,0c0.4,0,0.8,0.2,1.1,0.5c0.3,0.3,0.4,0.7,0.4,1l0,0.6h-1.7l0-0.3c-4,0-8,0-11.7,0c-0.2,0.2-0.4,0.3-0.6,0.3
	C10.1,12.2,10,12.2,9.9,12.2"/>
<path class="st0" d="M11.3,9.2l-0.8,0l0-0.6c0-0.8,0.5-1.5,1.3-1.5c0.3,0,0.6,0,0.8,0l8.1,0l0.3,0c0.2,0,0.5,0,0.7,0
	c0.4,0,0.7,0.2,0.9,0.5c0.3,0.3,0.4,0.7,0.3,1.1l-0.1,0.6h-1.8l0-0.3c-2.8,0-5.7,0-8.9,0c-0.1,0.2-0.4,0.3-0.6,0.3
	C11.4,9.2,11.4,9.2,11.3,9.2"/>
<path class="st0" d="M19.7,19.3l-2.7-2.7c-0.2-0.2-0.5-0.2-0.7,0l-2.7,2.7c-0.3,0.3-0.1,0.8,0.3,0.8l1.3,0c0.3,0,0.5,0.2,0.5,0.5
	v1.1c0,0.3,0.2,0.5,0.5,0.5h1c0.3,0,0.5-0.2,0.5-0.5v-1.1c0-0.3,0.2-0.5,0.5-0.5l1.3,0C19.7,20.1,19.9,19.6,19.7,19.3"/>
<g>
</g>
<g>
</g>
<g>
</g>
<g>
</g>
<g>
</g>
<g>
</g>
<g>
</g>
<g>
</g>
<g>
</g>
<g>
</g>
<g>
</g>
<g>
</g>
<g>
</g>
<g>
</g>
<g>
</g>
</svg>
