<?xml version="1.0" encoding="utf-8"?>
<!-- Generator: Adobe Illustrator 21.1.0, SVG Export Plug-In . SVG Version: 6.00 Build 0)  -->
<svg version="1.1" id="Layer_1" xmlns="http://www.w3.org/2000/svg" xmlns:xlink="http://www.w3.org/1999/xlink" x="0px" y="0px"
	 viewBox="0 0 32 32" style="enable-background:new 0 0 32 32;" xml:space="preserve">
<style type="text/css">
	.st0{opacity:0.5;fill:#FFFFFF;}
</style>
<path class="st0" d="M5.9,25.1C6,25,6,24.9,6.1,24.8c0.6-2,1.2-4,1.7-6c0.1-0.3,0.2-0.5,0.4-0.7c3-2.9,5.9-5.9,8.9-8.8
	c0.2-0.2,0.3-0.2,0.5,0c0.3,0.3,0.7,0.5,0.8,0.8c0,0.3-0.5,0.6-0.7,0.8c-2.6,2.6-5.3,5.3-7.9,7.9c-0.2,0.2-0.3,0.4-0.4,0.7
	c-0.3,1-0.6,2.1-0.9,3.1c-0.1,0.5,0.2,0.6,0.4,0.9c0.2,0.2,0.4,0.2,0.6,0.2c1-0.3,2-0.6,3-0.9c0.3-0.1,0.4-0.2,0.6-0.4
	c2.8-2.8,5.7-5.7,8.5-8.5c0.3-0.3,0.4-0.3,0.6,0c0.2,0.2,0.4,0.4,0.6,0.6c0.3,0.2,0.3,0.4,0,0.6c-2.2,2.2-4.4,4.3-6.6,6.5
	c-0.8,0.7-1.5,1.5-2.3,2.2c-0.2,0.2-0.4,0.3-0.6,0.3c-2.1,0.6-4.3,1.3-6.4,1.8c0,0,0,0-0.1,0.1H6.5c-0.2-0.2-0.4-0.4-0.6-0.7V25.1z"
	/>
<path class="st0" d="M27.3,9.7c-0.2,0.7-0.7,1.2-1.2,1.7c-0.2,0.2-0.2,0.2-0.4,0C24,9.7,22.3,8,20.6,6.3c-0.2-0.2-0.2-0.3,0-0.5
	c0.5-0.5,1-0.9,1.6-1.2h0.6c0.6,0.2,1.1,0.6,1.6,1c0.5,0.5,1.1,1.1,1.6,1.6s1.1,1.1,1.3,1.9C27.3,9.1,27.3,9.7,27.3,9.7z"/>
<path class="st0" d="M11.8,21.6c-0.2-0.2-0.2-0.5-0.2-0.7c0-0.3-0.2-0.5-0.5-0.5s-0.5-0.1-0.8-0.2c0-0.2,0.1-0.2,0.2-0.3
	c2.8-2.8,5.7-5.7,8.5-8.5c0.2-0.2,0.4-0.3,0.6,0c0.3,0.3,0.6,0.6,0.9,0.9c0.2,0.2,0.2,0.3,0,0.6c-2.5,2.4-4.9,4.9-7.4,7.4
	C12.7,20.7,12.2,21.1,11.8,21.6"/>
<path class="st0" d="M23.9,13.8c-0.1,0-0.2-0.1-0.3-0.2c-1.8-1.8-3.5-3.5-5.3-5.3c-0.2-0.2-0.2-0.3,0-0.5c0.3-0.2,0.5-0.5,0.8-0.7
	c0.2-0.2,0.3-0.2,0.5,0c0.8,0.8,1.7,1.7,2.5,2.5c0.9,0.9,1.8,1.8,2.7,2.7c0.3,0.3,0.3,0.5,0,0.7s-0.5,0.5-0.7,0.7
	C24.1,13.7,24,13.7,23.9,13.8"/>
</svg>
