<?xml version="1.0" encoding="utf-8"?>
<!-- Generator: Adobe Illustrator 21.0.0, SVG Export Plug-In . SVG Version: 6.00 Build 0)  -->
<svg version="1.1" id="Layer_1" xmlns="http://www.w3.org/2000/svg" xmlns:xlink="http://www.w3.org/1999/xlink" x="0px" y="0px"
	 viewBox="0 0 40 40" style="enable-background:new 0 0 40 40;" xml:space="preserve">
<style type="text/css">
	.st0{fill:#034A75;}
</style>
<path class="st0" d="M17,29.5c4.7-4.7,9.4-9.4,14-14c-1.1-1.1-2.2-2.2-3.5-3.5c-3.5,3.5-7,7-10.7,10.7c-1-1.1-2.1-2.1-3-3.1
	c-1.2,1.2-2.3,2.3-3.4,3.4C12.6,25.1,14.8,27.3,17,29.5 M20.2,39.9h-0.5c-1.3-0.7-2.6-1.3-3.9-2c-3.7-2-7.1-4.4-9.7-7.8
	c-1.9-2.5-3-5.2-2.9-8.4c0.1-4.6,0-9.3,0-13.9V6.9C6.5,7,9.5,6.3,12.4,5.2C15.3,4,18,2.5,20.1,0.1c4.6,5,10.5,5.9,16.8,6.2v0.8
	c0,4.8-0.1,9.7,0,14.5c0.1,3.3-1,6.1-3,8.6c-2.2,2.8-5.1,5-8.2,6.8C24,38,22.1,38.9,20.2,39.9"/>
</svg>
