<?xml version="1.0" encoding="UTF-8" standalone="no"?>
<svg
   xmlns:dc="http://purl.org/dc/elements/1.1/"
   xmlns:cc="http://creativecommons.org/ns#"
   xmlns:rdf="http://www.w3.org/1999/02/22-rdf-syntax-ns#"
   xmlns:svg="http://www.w3.org/2000/svg"
   xmlns="http://www.w3.org/2000/svg"
   version="1.1"
   id="svg22822"
   viewBox="0 0 30.906249 21.332499"
   height="6.0205054mm"
   width="8.7224302mm">
  <defs
     id="defs22824">
    <clipPath
       id="clipPath14821"
       clipPathUnits="userSpaceOnUse">
      <path
         id="path14823"
         d="m 0,0 1400,0 0,1355.248 -1400,0 L 0,0 Z" />
    </clipPath>
  </defs>
  <metadata
     id="metadata22827">
    <rdf:RDF>
      <cc:Work
         rdf:about="">
        <dc:format>image/svg+xml</dc:format>
        <dc:type
           rdf:resource="http://purl.org/dc/dcmitype/StillImage" />
        <dc:title></dc:title>
      </cc:Work>
    </rdf:RDF>
  </metadata>
  <g
     transform="translate(-30.261165,-47.4102)"
     id="layer1">
    <g
       id="g15803"
       transform="matrix(1.25,0,0,-1.25,-496.13696,1595.1277)">
      <g
         id="g15805"
         clip-path="url(#clipPath14821)">
        <path
           id="path15807"
           style="fill:#074974;fill-opacity:1;fill-rule:nonzero;stroke:none"
           d="m 423.7825,1238.174 c 0,0 -2.664,0 -2.664,-2.664 l 0,-11.738 c 0,0 0,-2.664 2.664,-2.664 l 19.397,0 c 0,0 2.664,0 2.664,2.664 l 0,11.738 c 0,0 0,2.664 -2.664,2.664 l -19.397,0 z" />
        <path
           id="path15809"
           style="fill:#ffffff;fill-opacity:1;fill-rule:nonzero;stroke:none"
           d="m 426.4464,1225.487 0,8.566 c 0.003,0.01 0.01,0.014 0.01,0.021 0.012,0.202 0.065,0.393 0.152,0.574 0.07,0.145 0.149,0.286 0.251,0.412 0.094,0.117 0.195,0.222 0.318,0.31 0.07,0.05 0.139,0.11 0.213,0.147 0.1,0.05 0.197,0.111 0.31,0.142 0.135,0.036 0.266,0.087 0.408,0.091 0.017,10e-4 0.026,0.011 0.034,0.024 4.136,0 8.273,0 12.409,0 0.05,0 0.061,-0.01 0.061,-0.06 -10e-4,-3.609 -10e-4,-7.218 -10e-4,-10.827 -0.395,0 -0.789,-10e-4 -1.183,10e-4 -0.052,0 -0.065,-0.013 -0.065,-0.065 0.002,-0.352 10e-4,-0.705 10e-4,-1.058 l -11.185,0 c -0.005,0.012 -0.016,0.012 -0.026,0.012 -0.217,0.012 -0.42,0.076 -0.616,0.166 -0.345,0.16 -0.611,0.413 -0.815,0.731 -0.107,0.167 -0.182,0.351 -0.226,0.545 -0.02,0.088 -0.033,0.178 -0.05,0.267 m 7.681,9.75 c -1.916,0 -3.832,0 -5.748,10e-4 -0.2,10e-4 -0.39,-0.036 -0.574,-0.112 -0.467,-0.194 -0.819,-0.706 -0.821,-1.212 -0.003,-0.746 -0.002,-1.492 -0.002,-2.238 0.001,-2.016 0.001,-4.031 0.001,-6.047 0,-0.102 0.016,-0.203 0.043,-0.301 0.17,-0.618 0.708,-1.025 1.35,-1.025 3.455,0 6.911,0 10.367,0 0.086,0 0.084,-0.02 0.084,0.082 10e-4,0.999 0,1.837 0,2.836 0,0.082 0,0.083 -0.08,0.083 -0.8,0 -1.462,0 -2.262,0 -0.063,0 -0.262,0 -0.324,-0.01 -0.08,-0.011 -0.084,0 -0.084,0.077 0,0.89 0,2.078 0,2.968 0,0.094 -0.009,0.083 0.084,0.083 1.003,10e-4 1.87,10e-4 2.599,-10e-4 0.057,0 0.069,0.016 0.069,0.069 -0.002,0.971 -0.001,2.203 -0.002,3.174 0,0.11 0.008,0.093 -0.093,0.093 -3.418,0 -6.836,0 -10.255,0 -0.041,0 -0.083,0 -0.124,0 -0.304,0.01 -0.408,0.12 -0.404,0.325 0.004,0.212 0.145,0.281 0.425,0.281 3.525,0 7.049,0 10.573,0 0.063,0 0.3,0 0.362,10e-4 0.046,0 0.055,-0.014 0.054,-0.056 -0.003,-0.077 0,-0.154 0,-0.231 0,-0.847 -0.001,-2.231 0.002,-4.151 0,-0.064 -0.016,-0.079 -0.079,-0.079 -0.845,0 -1.729,10e-4 -2.574,0 -0.056,0 -0.07,-0.014 -0.069,-0.069 0.002,-0.607 0.002,-1.214 0,-1.82 0,-0.059 0.017,-0.071 0.072,-0.071 0.846,0 1.729,10e-4 2.575,0 0.061,0 0.075,-0.016 0.075,-0.075 -0.003,-0.939 -0.002,-1.717 -0.003,-2.332 0,-0.048 0.012,-0.063 0.062,-0.063 0.245,0 0.316,10e-4 0.561,10e-4 0.08,0 0.08,0 0.08,0.081 0,3.219 0,6.438 10e-4,9.656 0,0.06 -0.015,0.076 -0.075,0.076 -1.955,0 -3.911,0 -5.866,0" />
        <path
           id="path15811"
           style="fill:#ffffff;fill-opacity:1;fill-rule:nonzero;stroke:none"
           d="m 437.5741,1228.416 c -0.247,-0.011 -0.492,0.2 -0.489,0.488 0.004,0.308 0.253,0.488 0.493,0.486 0.269,0 0.485,-0.22 0.484,-0.493 0,-0.266 -0.229,-0.493 -0.488,-0.481" />
        <path
           id="path15813"
           style="fill:#ffffff;fill-opacity:1;fill-rule:nonzero;stroke:none"
           d="m 430.1453,1230.144 c 0.329,0.327 0.775,0.528 1.275,0.529 0.5,-10e-4 0.947,-0.202 1.275,-0.529 0.174,-0.176 0.314,-0.386 0.405,-0.621 l -3.361,0 c 0.092,0.235 0.23,0.445 0.406,0.621 m 2.628,-2.465 c -0.025,-0.029 -0.052,-0.057 -0.078,-0.084 -0.328,-0.328 -0.775,-0.528 -1.275,-0.528 -0.5,0 -0.946,0.2 -1.275,0.528 -0.237,0.237 -0.407,0.536 -0.484,0.873 l 2.131,0 0,0 2.558,0 c 0.018,0.131 0.028,0.265 0.028,0.401 0,0.815 -0.333,1.558 -0.867,2.092 -0.534,0.534 -1.276,0.866 -2.091,0.866 -0.816,0 -1.559,-0.332 -2.092,-0.866 -0.534,-0.534 -0.866,-1.277 -0.866,-2.092 0,-0.815 0.332,-1.558 0.866,-2.091 0.533,-0.535 1.276,-0.867 2.092,-0.867 l 10e-4,0 c 0.814,0 1.557,0.333 2.09,0.867 0.256,0.255 0.465,0.566 0.614,0.903 l -1.352,0 z" />
      </g>
    </g>
  </g>
</svg>
