<?xml version="1.0" encoding="utf-8"?>
<!-- Generator: Adobe Illustrator 21.1.0, SVG Export Plug-In . SVG Version: 6.00 Build 0)  -->
<svg version="1.1" id="Layer_1" xmlns="http://www.w3.org/2000/svg" xmlns:xlink="http://www.w3.org/1999/xlink" x="0px" y="0px"
	 viewBox="0 0 32 32" style="enable-background:new 0 0 32 32;" xml:space="preserve">
<style type="text/css">
	.st0{fill:#004776;}
</style>
<path class="st0" d="M27,16c0,6.1-4.9,11-11,11S5,22.1,5,16S9.9,5,16,5S27,9.9,27,16z M14.9,16c1-1,2-2,3-3.1
	c0.2-0.3,0.5-0.6,0.5-0.9c0.1-0.5-0.2-1.1-0.7-1.3c-0.5-0.3-1.1-0.2-1.6,0.2c-1,1-2.1,2-3.1,3c-0.4,0.4-0.7,0.7-1.1,1.1
	c-0.6,0.6-0.6,1.4,0,2c1.4,1.4,2.8,2.7,4.1,4.1c0.6,0.6,1.4,0.6,1.9,0s0.5-1.3-0.1-1.9C17,18.1,15.9,17.1,14.9,16"/>
<g>
</g>
<g>
</g>
<g>
</g>
<g>
</g>
<g>
</g>
<g>
</g>
<g>
</g>
<g>
</g>
<g>
</g>
<g>
</g>
<g>
</g>
<g>
</g>
<g>
</g>
<g>
</g>
<g>
</g>
</svg>
