<?xml version="1.0" encoding="UTF-8" standalone="no"?>
<!-- Created with Inkscape (http://www.inkscape.org/) -->

<svg
   xmlns:dc="http://purl.org/dc/elements/1.1/"
   xmlns:cc="http://creativecommons.org/ns#"
   xmlns:rdf="http://www.w3.org/1999/02/22-rdf-syntax-ns#"
   xmlns:svg="http://www.w3.org/2000/svg"
   xmlns="http://www.w3.org/2000/svg"
   xmlns:sodipodi="http://sodipodi.sourceforge.net/DTD/sodipodi-0.dtd"
   xmlns:inkscape="http://www.inkscape.org/namespaces/inkscape"
   width="6.3499885mm"
   height="4.1492648mm"
   viewBox="0 0 22.499959 14.702119"
   id="svg4770"
   version="1.1"
   inkscape:version="0.91 r13725"
   sodipodi:docname="eye_closed.svg">
  <defs
     id="defs4772" />
  <sodipodi:namedview
     id="base"
     pagecolor="#ffffff"
     bordercolor="#666666"
     borderopacity="1.0"
     inkscape:pageopacity="0.0"
     inkscape:pageshadow="2"
     inkscape:zoom="7.9195959"
     inkscape:cx="11.303193"
     inkscape:cy="-0.065575497"
     inkscape:document-units="px"
     inkscape:current-layer="layer1"
     showgrid="false"
     fit-margin-top="0"
     fit-margin-left="0"
     fit-margin-right="0"
     fit-margin-bottom="0"
     inkscape:showpageshadow="false"
     inkscape:window-width="1920"
     inkscape:window-height="1151"
     inkscape:window-x="0"
     inkscape:window-y="1"
     inkscape:window-maximized="1" />
  <metadata
     id="metadata4775">
    <rdf:RDF>
      <cc:Work
         rdf:about="">
        <dc:format>image/svg+xml</dc:format>
        <dc:type
           rdf:resource="http://purl.org/dc/dcmitype/StillImage" />
        <dc:title></dc:title>
      </cc:Work>
    </rdf:RDF>
  </metadata>
  <g
     inkscape:label="Layer 1"
     inkscape:groupmode="layer"
     id="layer1"
     transform="translate(-363.75,-525.01114)">
    <path
       d="m 370.31452,538.69838 c 0.5475,-0.54875 1.0925,-1.09375 1.655,-1.6575 1.25,0.7925 2.64125,1.0825 4.13625,0.78625 1.1825,-0.235 2.18,-0.81125 3.00125,-1.69375 1.55375,-1.6725 2.09,-4.42875 0.58375,-6.8075 0.70875,-0.7075 1.41375,-1.41 2.14875,-2.1425 0.25875,0.195 0.56625,0.41125 0.85875,0.6475 1.39875,1.13375 2.5275,2.495 3.4125,4.0625 0.18625,0.33 0.18625,0.62875 -0.004,0.96 -1.575,2.7375 -3.76,4.8025 -6.7075,5.98625 -2.98125,1.19875 -5.97375,1.1525 -8.94625,-0.0688 -0.0425,-0.0175 -0.085,-0.035 -0.12625,-0.0562 -0.0125,-0.006 -0.0175,-0.0238 -0.0125,-0.0163"
       style="fill:#074974;fill-opacity:1;fill-rule:nonzero;stroke:none"
       id="path4208"
       inkscape:connector-curvature="0" />
    <path
       d="m 370.32889,535.41451 c -0.71375,0.71375 -1.4125,1.4125 -2.1425,2.14125 -0.3875,-0.30375 -0.80375,-0.61 -1.19625,-0.945 -1.2675,-1.08 -2.2975,-2.35625 -3.10875,-3.81 -0.15125,-0.27125 -0.18625,-0.53875 -0.0288,-0.815 1.93125,-3.385 4.70375,-5.70625 8.52875,-6.6475 2.45875,-0.60625 4.86625,-0.3525 7.2025,0.6175 0.035,0.0137 0.0713,0.03 0.105,0.0462 0.0137,0.006 0.0238,0.0175 0.0188,0.0137 -0.55125,0.5475 -1.10375,1.095 -1.675,1.66375 -1.24,-0.7875 -2.6325,-1.07625 -4.1275,-0.77875 -1.18125,0.235 -2.18,0.81 -3,1.6925 -1.5375,1.65375 -2.1,4.41625 -0.57625,6.82125"
       style="fill:#074974;fill-opacity:1;fill-rule:nonzero;stroke:none"
       id="path4210"
       inkscape:connector-curvature="0" />
    <path
       d="m 371.97839,533.73876 c -0.63125,-1.09875 -0.325,-2.7675 0.7,-3.7725 1.09125,-1.06875 2.71,-1.17375 3.70125,-0.6275 -1.4625,1.46125 -2.93125,2.93 -4.40125,4.4"
       style="fill:#074974;fill-opacity:1;fill-rule:nonzero;stroke:none"
       id="path4212"
       inkscape:connector-curvature="0" />
    <path
       d="m 378.02139,530.97888 c 0.55375,0.96875 0.46625,2.63875 -0.66,3.7575 -1.1225,1.11375 -2.78625,1.19125 -3.7375,0.6425 1.465,-1.465 2.9325,-2.93375 4.3975,-4.4"
       style="fill:#074974;fill-opacity:1;fill-rule:nonzero;stroke:none"
       id="path4214"
       inkscape:connector-curvature="0" />
  </g>
</svg>
