<?xml version="1.0" encoding="utf-8"?>
<!-- Generator: Adobe Illustrator 21.0.0, SVG Export Plug-In . SVG Version: 6.00 Build 0)  -->
<svg version="1.1" id="Layer_1" xmlns="http://www.w3.org/2000/svg" xmlns:xlink="http://www.w3.org/1999/xlink" x="0px" y="0px"
	 viewBox="0 0 40 40" style="enable-background:new 0 0 40 40;" xml:space="preserve">
<style type="text/css">
	.st0{fill:#034A75;}
	.st1{fill:none;}
</style>
<path class="st0" d="M22.4,22c0-0.6,0-1.3,0-1.9c0-0.7,0-1.5,0-2.2c0-0.3-0.1-0.7-0.5-0.8c-0.4-0.1-0.7,0.3-0.8,0.6
	c-0.3,0.9-0.5,1.9-0.8,2.8c-0.1,0.3-0.2,0.7-0.3,1c-0.1,0.2-0.3,0.3-0.4,0.4c-0.1-0.1-0.3-0.3-0.3-0.4c-0.1-0.4-0.2-0.9-0.3-1.3
	c-0.1-0.3-0.2-0.6-0.4-0.9c-0.1-0.2-0.4-0.4-0.6-0.3c-0.2,0-0.5,0.3-0.5,0.5c-0.1,0.4-0.1,0.9-0.1,1.3c0.1,0.8,0.2,1.5,0.3,2.3
	c0.1,0.7-0.1,1.3-0.4,1.9c-0.3,0.7-0.6,1.5-0.5,2.3c0,0,0,0.1,0,0.1c0.3,0.6,0,1-0.4,1.5c-0.5,0.6-1,1.3-1.5,2
	c-0.9-0.8-1.9-1.5-2.7-2.3C8.5,25,5,21.4,1.4,17.8c-0.5-0.5-0.7-1.2-0.5-1.8c0.2-0.7,0.7-1.1,1.4-1.2c0.6-0.1,1.1,0.1,1.5,0.5
	c2.5,2.3,5,4.6,7.5,6.9c0.1,0.1,0.2,0.2,0.3,0.3c0.4-0.4,0.4-0.4,0-0.9c-3.4-3.4-6.8-6.8-10.1-10.2c-0.7-0.7-0.8-1.9-0.1-2.6
	c0.8-0.8,1.8-0.6,2.4,0c1.8,1.7,3.6,3.3,5.4,5c1.7,1.6,3.4,3.1,5.1,4.7c0,0,0.1,0.1,0.2,0.2c0.1-0.1,0.2-0.3,0.4-0.4
	c-0.1-0.1-0.2-0.2-0.3-0.3c-4-4.1-8-8.1-12.1-12.2C1.8,5,1.7,3.9,2.3,3.1C3,2,4.4,1.8,5.4,2.7C7,4.2,8.6,5.7,10.2,7.1
	c2.7,2.4,5.3,4.9,8,7.3c0.1,0.1,0.1,0.1,0.2,0.2c0.2-0.1,0.3-0.3,0.5-0.4c-0.2-0.2-0.4-0.4-0.6-0.6c-3.3-3.3-6.5-6.7-9.8-10
	C8,3,7.8,2.1,8.3,1.3C8.7,0.5,9.5,0,10.5,0.2c0.4,0.1,0.7,0.3,1,0.5c4.5,4,8.9,8.1,13.3,12.1c0.2,0.2,0.4,0.3,0.7,0.4
	c0.1,0,0.4,0,0.4-0.1c0.1-0.1,0-0.3-0.1-0.5c-0.5-0.6-1.3-1.1-1.6-1.9c-0.3-1-1-1.9-2.1-2.1c-1.9-0.3-2.5-2.2-1.5-3.4
	c0.7-0.9,2.1-1.1,3-0.2c1.8,1.7,3.7,3.3,6,4.4c1.8,0.9,2.3,2.1,2.5,3.6c0.4,3,0.9,6,1.3,9c0.1,0.6,0.4,1.1,0.8,1.5
	c1.3,1.5,3.9,4.4,4.8,5.4c0.2,0.2,0.2,0.5,0,0.8c-3,3.2-6,6.5-9.1,9.7c-0.2,0.2-0.6,0.2-0.8,0c-0.4-0.4-0.8-0.9-1.2-1.3
	c-1.2-1.2-2.4-2.4-3.8-3.3c-0.7-0.5-1.4-0.8-2.3-0.9c-0.5-0.1-1.1-0.3-1.7-0.4c0.6-1.1,1.2-2.1,2.5-2.3c0.6-0.1,1.1-0.4,1.6-0.8
	c0.7-0.5,1.4-0.6,2.2-0.6c0.7,0,1.4,0,2.1-0.1c0.2,0,0.4-0.1,0.6-0.1c0.4-0.1,0.6-0.4,0.6-0.8c0-0.5-0.2-0.8-0.6-1
	c-0.6-0.1-1.1-0.2-1.7-0.3c-0.5-0.1-1.1-0.2-1.6-0.3c-0.4-0.1-0.5-0.5-0.3-0.8c1.2-1.5,2.4-3,3.6-4.5c0.3-0.4,0.5-0.8,0.7-1.2
	c0.2-0.5,0.1-0.9-0.2-1.1c-0.3-0.2-0.9-0.2-1.2,0.2c-0.4,0.4-0.7,0.8-1,1.1c-0.6,0.6-1.1,1.2-1.7,1.8c-0.2,0.2-0.6,0.3-0.9,0.5
	c-0.2-0.4-0.1-0.7,0-1.1c0.3-0.8,0.6-1.5,0.9-2.2c0.2-0.6,0.4-1.1,0.6-1.7c0.1-0.3,0.1-0.7-0.3-0.9c-0.4-0.2-0.7-0.1-1,0.2
	c-0.4,0.5-0.7,1-1,1.5c-0.4,0.8-0.8,1.7-1.2,2.5c-0.1,0.2-0.3,0.4-0.5,0.6C22.5,22.1,22.4,22,22.4,22"/>
<rect x="-1" y="-1.4" class="st1" width="44" height="45.4"/>
</svg>
