<?xml version="1.0" encoding="utf-8"?>
<!-- Generator: Adobe Illustrator 21.1.0, SVG Export Plug-In . SVG Version: 6.00 Build 0)  -->
<svg version="1.1" id="Layer_1" xmlns="http://www.w3.org/2000/svg" xmlns:xlink="http://www.w3.org/1999/xlink" x="0px" y="0px"
	 viewBox="0 0 32 32" style="enable-background:new 0 0 32 32;" xml:space="preserve">
<style type="text/css">
	.st0{opacity:0.5;fill:#FFFFFF;}
</style>
<path class="st0" d="M22.1,15.3c0.1,0.1,0.3,0.2,0.4,0.3c0,0,0.1,0.1,0.1,0.2c0,2.2,0,4.3,0,6.5c0,1.6-1.3,2.5-2.4,2.6
	c-0.6,0-1.3,0-1.9,0c-2.5,0-5,0-7.5,0c-1.1,0-2-0.5-2.5-1.5C8.1,23,8,22.6,8,22.2c0-3.7,0-7.4,0-11.1c0-0.4,0.2-0.8,0.4-1.2
	c0.6-1,1.5-1.7,2.4-2.4c0.5-0.4,1-0.6,1.6-0.9c0.3-0.2,0.7-0.2,1.1-0.2c2.1,0,4.2,0,6.3,0c1.3,0,2.4,0.8,2.6,2.1
	c0.1,0.5,0.1,1,0.1,1.5c0,0,0,0.1-0.1,0.1c-0.4,0.4-0.8,0.8-1.2,1.2c0-0.1,0-0.2,0-0.3c0-0.7,0-1.4,0-2.1c0-0.8-0.6-1.3-1.3-1.3
	c-2.1,0-4.2,0-6.4,0h-0.3c0,0.2,0,0.4,0,0.6c0,0.5,0,0.9-0.1,1.4c-0.1,0.8-0.7,1.3-1.5,1.3c-0.7,0-1.4,0-2.1,0c-0.1,0-0.2,0-0.3,0
	c0,0.1,0,0.2,0,0.2c0,3.7,0,7.4,0,11.1c0,0.8,0.6,1.3,1.3,1.3c3.1,0,6.2,0,9.3,0c0.7,0,1.3-0.6,1.3-1.3c0-2,0-4,0-5.9
	c0-0.1,0-0.2,0.1-0.3C21.6,15.8,21.9,15.5,22.1,15.3"/>
<path class="st0" d="M26.7,9.3c0,0.3-0.1,0.5-0.4,0.8c-2.4,2.4-4.7,4.7-7.1,7.1c-0.5,0.5-1.1,0.9-1.6,1.3c-0.4,0.3-0.9,0.5-1.4,0.8
	c-0.1,0.1-0.3,0-0.4,0c0-0.1,0-0.3,0-0.4c0.3-0.9,0.8-1.6,1.4-2.3c0.2-0.3,0.4-0.5,0.7-0.7c2.4-2.4,4.7-4.7,7.1-7.1
	c0.3-0.3,0.6-0.4,1-0.3C26.4,8.5,26.7,8.9,26.7,9.3"/>
<path class="st0" d="M15.3,21.2c-1.4,0-2.8,0-4.1,0c-0.2,0-0.3,0-0.4-0.2c-0.1-0.2-0.1-0.5,0.1-0.6c0.1-0.1,0.2-0.1,0.3-0.1
	c2,0,4,0,6.1,0c0.7,0,1.5,0,2.2,0c0.4,0,0.5,0.2,0.5,0.5s-0.1,0.5-0.5,0.5C18,21.2,16.7,21.2,15.3,21.2"/>
<path class="st0" d="M15.3,12.3c1.4,0,2.8,0,4.2,0c0.2,0,0.3,0,0.4,0.2s0,0.3-0.1,0.4c-0.2,0.3-0.5,0.4-0.9,0.4c-2.6,0-5.1,0-7.7,0
	c-0.2,0-0.4,0-0.4-0.2c-0.1-0.2-0.1-0.4,0-0.6c0.1-0.1,0.2-0.1,0.4-0.1c1.1,0,2.3,0,3.4,0L15.3,12.3L15.3,12.3z"/>
<path class="st0" d="M18.3,14.3c-0.3,0.3-0.6,0.6-0.9,0.9c0,0-0.1,0.1-0.2,0.1c-2,0-4.1,0-6.1,0c-0.3,0-0.4-0.2-0.4-0.5
	s0.1-0.5,0.4-0.5C13.5,14.3,15.9,14.3,18.3,14.3L18.3,14.3"/>
<path class="st0" d="M26.9,10.6c0.3,0.3,0.4,0.9,0,1.3c-0.1,0.2-0.3,0.3-0.4,0.4c-0.8,0.8-1.7,1.7-2.5,2.5c-0.4,0.4-1,0.4-1.3,0
	C24.1,13.4,25.5,12,26.9,10.6"/>
<path class="st0" d="M16.4,16.3c-0.2,0.3-0.4,0.6-0.6,0.9c0,0-0.1,0.1-0.2,0.1c-1.5,0-3.1,0-4.6,0c-0.2,0-0.4-0.2-0.4-0.5
	s0.1-0.5,0.4-0.5C12.8,16.3,14.6,16.3,16.4,16.3L16.4,16.3"/>
<path class="st0" d="M15.2,18.3c-0.1,0.3-0.1,0.6-0.2,0.9c0,0-0.1,0.1-0.2,0.1c-0.9,0-1.7,0-2.6,0c-0.4,0-0.8,0-1.2,0
	c-0.2,0-0.4-0.2-0.4-0.5s0.1-0.5,0.4-0.5C12.4,18.3,13.8,18.3,15.2,18.3C15.1,18.3,15.2,18.3,15.2,18.3"/>
<path class="st0" d="M17.8,19.3c0.4-0.3,0.8-0.6,1.2-0.9c0.1-0.1,0.7-0.1,0.8,0c0.1,0.1,0.2,0.5,0.1,0.7c0,0.1-0.1,0.2-0.2,0.2
	C19,19.3,18.4,19.3,17.8,19.3"/>
</svg>
