<?xml version="1.0" encoding="utf-8"?>
<!-- Generator: Adobe Illustrator 21.1.0, SVG Export Plug-In . SVG Version: 6.00 Build 0)  -->
<svg version="1.1" id="Layer_1" xmlns="http://www.w3.org/2000/svg" xmlns:xlink="http://www.w3.org/1999/xlink" x="0px" y="0px"
	 viewBox="0 0 32 32" style="enable-background:new 0 0 32 32;" xml:space="preserve">
<style type="text/css">
	.st0{fill:#004776;}
</style>
<g>
	<path class="st0" d="M23.1,10.5c-2.1,0.1-4.1,0.1-6,0.1c-1.9,0-3.8,0-5.7,0c-0.9,0-1.5,0.4-1.5,1.4c0,0.7,0,1.5,0,2.2c0,2,0,4,0,6
		c0,0.1,0,0.2,0,0.3c0,0.7,0.7,1,1.4,1c3.5,0,6.9,0,10.4,0c0.1,0,0.1,0,0.1-0.1c0-1,0-1.8,0-2.8c0-0.1,0-0.1-0.1-0.1h-2.3
		c-0.1,0-0.3,0-0.3,0c-0.1,0-0.1,0-0.1-0.1c0-0.9,0-2.1,0-3c0-0.1,0-0.1,0.1-0.1c1,0,1.9,0,2.6,0c0.1,0,0.1,0,0.1-0.1
		c0-1,0-2.2,0-3.2c0-0.1,0-0.1-0.1-0.1c-3.4,0-6.8,0-10.3,0h-0.1c-0.3,0-0.4-0.1-0.4-0.3c0-0.2,0.1-0.3,0.4-0.3h10.6
		c0.1,0,0.3,0,0.4,0c0,0,0.1,0,0.1,0.1c0,0.1,0,0.2,0,0.2c0,0.8,0,2.2,0,4.2c0,0.1,0,0.1-0.1,0.1c-0.8,0-1.7,0-2.6,0
		c-0.1,0-0.1,0-0.1,0.1c0,0.6,0,1.2,0,1.8c0,0.1,0,0.1,0.1,0.1c0.8,0,1.7,0,2.6,0c0.1,0,0.1,0,0.1,0.1c0,0.9,0,1.7,0,2.3
		c0,0,0,0.1,0.1,0.1c0.2,0,0.3,0,0.6,0c0.1,0,0.1,0,0.1-0.1c0-3.2,0-6.4,0-9.7C23.2,10.5,23.2,10.5,23.1,10.5z M12.1,14.9
		c0.5-0.6,1.3-0.9,2.1-0.9s1.6,0.4,2.1,0.9c0.6,0.5,0.9,1.3,0.9,2.1c0,0.1,0,0.3,0,0.4h-2.6h-2.1c0.1,0.4,0.3,0.7,0.5,0.9
		c0.4,0.3,0.8,0.5,1.3,0.5s1-0.2,1.4-0.6h1.2c-0.1,0.3-0.3,0.6-0.6,0.9C15.8,19.7,15,20,14.2,20s-1.6-0.4-2.1-0.9
		c-0.6-0.5-0.9-1.3-0.9-2.1S11.6,15.4,12.1,14.9z M20.5,17.5c-0.2,0-0.5-0.2-0.5-0.5s0.3-0.5,0.5-0.5c0.3,0,0.5,0.2,0.5,0.5
		S20.8,17.5,20.5,17.5z"/>
	<path class="st0" d="M26.1,7.7H6.7c0,0-2.7,0-2.7,2.7v11.7c0,0,0,2.7,2.7,2.7h19.4c0,0,2.7,0,2.7-2.7V10.4
		C28.8,10.4,28.8,7.7,26.1,7.7z M23.6,21.1c-0.4,0-0.8,0-1.2,0c-0.1,0-0.1,0-0.1,0.1c0,0.4,0,0.7,0,1.1H11.1c-0.7,0-1.7-0.5-1.7-1.9
		v-8.6c0-0.8,0.6-1.6,1.7-1.6c4.1,0,8.3,0,12.4,0c0.1,0,0.1,0,0.1,0.1C23.6,13.9,23.6,17.5,23.6,21.1z"/>
	<path class="st0" d="M15.7,15.7c-0.4-0.3-0.8-0.5-1.3-0.5s-1,0.2-1.3,0.5c-0.2,0.2-0.3,0.4-0.4,0.6h3.4
		C16,16.1,15.9,15.9,15.7,15.7z"/>
</g>
</svg>
