<?xml version="1.0" encoding="UTF-8" standalone="no"?>
<!-- Created with Inkscape (http://www.inkscape.org/) -->

<svg
   xmlns:dc="http://purl.org/dc/elements/1.1/"
   xmlns:cc="http://creativecommons.org/ns#"
   xmlns:rdf="http://www.w3.org/1999/02/22-rdf-syntax-ns#"
   xmlns:svg="http://www.w3.org/2000/svg"
   xmlns="http://www.w3.org/2000/svg"
   xmlns:sodipodi="http://sodipodi.sourceforge.net/DTD/sodipodi-0.dtd"
   xmlns:inkscape="http://www.inkscape.org/namespaces/inkscape"
   width="7.9760098mm"
   height="7.4177618mm"
   viewBox="0 0 28.261452 26.283408"
   id="svg5300"
   version="1.1"
   inkscape:version="0.91 r13725"
   sodipodi:docname="table_fork.svg">
  <defs
     id="defs5302">
    <clipPath
       clipPathUnits="userSpaceOnUse"
       id="clipPath3440">
      <path
         d="M 0,0 500,0 500,1503 0,1503 0,0 Z"
         id="path3442"
         inkscape:connector-curvature="0" />
    </clipPath>
    <clipPath
       clipPathUnits="userSpaceOnUse"
       id="clipPath3444">
      <path
         d="m 82,1072 24,0 0,22 -24,0 0,-22 z"
         id="path3446"
         inkscape:connector-curvature="0" />
    </clipPath>
    <clipPath
       clipPathUnits="userSpaceOnUse"
       id="clipPath3448">
      <path
         d="m 81.6952,1071.32 24.6098,0 0,23.03 -24.6098,0 0,-23.03 z"
         id="path3450"
         inkscape:connector-curvature="0" />
    </clipPath>
  </defs>
  <sodipodi:namedview
     id="base"
     pagecolor="#ffffff"
     bordercolor="#666666"
     borderopacity="1.0"
     inkscape:pageopacity="0.0"
     inkscape:pageshadow="2"
     inkscape:zoom="0.35"
     inkscape:cx="14.130725"
     inkscape:cy="13.141717"
     inkscape:document-units="px"
     inkscape:current-layer="layer1"
     showgrid="false"
     inkscape:showpageshadow="false"
     fit-margin-top="0"
     fit-margin-left="0"
     fit-margin-right="0"
     fit-margin-bottom="0"
     inkscape:window-width="1440"
     inkscape:window-height="851"
     inkscape:window-x="0"
     inkscape:window-y="1"
     inkscape:window-maximized="1" />
  <metadata
     id="metadata5305">
    <rdf:RDF>
      <cc:Work
         rdf:about="">
        <dc:format>image/svg+xml</dc:format>
        <dc:type
           rdf:resource="http://purl.org/dc/dcmitype/StillImage" />
        <dc:title></dc:title>
      </cc:Work>
    </rdf:RDF>
  </metadata>
  <g
     inkscape:label="Layer 1"
     inkscape:groupmode="layer"
     id="layer1"
     transform="translate(-360.86928,-519.22051)">
    <g
       transform="matrix(1.25,0,0,-1.25,257.49987,1885.9088)"
       id="g4032">
      <g
         clip-path="url(#clipPath3440)"
         id="g4034">
        <g
           id="g4036" />
        <g
           id="g4038">
          <g
             clip-path="url(#clipPath3444)"
             id="g4040"
             style="opacity:0.5">
            <g
               id="g4042" />
            <g
               id="g4044">
              <g
                 clip-path="url(#clipPath3448)"
                 id="g4046">
                <path
                   d="m 95.0223,1085.003 c -0.412,0.423 -0.707,0.876 -0.877,1.409 -0.394,1.236 0.015,2.467 1.071,3.213 1.68,1.186 3.358,2.375 5.039,3.561 0.388,0.274 0.827,0.17 1.017,-0.237 0.132,-0.284 0.034,-0.52 -0.161,-0.738 -0.979,-1.094 -1.954,-2.19 -2.931,-3.285 -0.281,-0.315 -0.562,-0.629 -0.841,-0.945 -0.243,-0.276 -0.257,-0.532 -0.043,-0.736 0.198,-0.188 0.467,-0.166 0.719,0.065 1.399,1.282 2.797,2.565 4.196,3.847 0.234,0.214 0.531,0.254 0.765,0.113 0.273,-0.164 0.415,-0.443 0.331,-0.726 -0.041,-0.138 -0.135,-0.27 -0.234,-0.379 -1.256,-1.376 -2.516,-2.75 -3.78,-4.12 -0.156,-0.169 -0.242,-0.347 -0.166,-0.571 0.109,-0.324 0.502,-0.403 0.786,-0.154 0.615,0.54 1.224,1.086 1.834,1.631 0.825,0.735 1.647,1.473 2.475,2.205 0.402,0.355 0.977,0.19 1.075,-0.331 0.033,-0.178 -0.049,-0.419 -0.158,-0.576 -1.098,-1.577 -2.213,-3.144 -3.324,-4.712 -0.156,-0.22 -0.304,-0.449 -0.484,-0.647 -0.855,-0.94 -2.322,-1.144 -3.506,-0.48 -0.298,0.167 -0.565,0.39 -0.866,0.6 -0.049,-0.052 -0.112,-0.117 -0.171,-0.184 -2.825,-3.233 -5.65,-6.465 -8.473,-9.698 -0.376,-0.431 -0.841,-0.689 -1.406,-0.777 -0.966,-0.151 -1.941,0.365 -2.376,1.264 -0.438,0.906 -0.238,2.004 0.509,2.66 2.104,1.847 4.215,3.687 6.323,5.529 1.137,0.993 2.275,1.985 3.412,2.978 0.075,0.066 0.149,0.134 0.245,0.221"
                   style="fill:#074974;fill-opacity:1;fill-rule:nonzero;stroke:none"
                   id="path4048"
                   inkscape:connector-curvature="0" />
                <path
                   d="m 92.7557,1084.668 c -0.821,-0.718 -1.607,-1.408 -2.398,-2.089 -0.056,-0.048 -0.174,-0.075 -0.241,-0.051 -1.815,0.651 -3.46,1.581 -4.807,2.986 -1.248,1.302 -1.976,2.881 -2.366,4.617 -0.15,0.668 -0.2,1.363 -0.244,2.049 -0.023,0.356 0.042,0.726 0.372,0.975 0.309,0.233 0.535,0.266 0.857,0.055 0.231,-0.152 0.451,-0.328 0.648,-0.522 1.456,-1.429 2.903,-2.868 4.357,-4.298 1.161,-1.14 2.328,-2.274 3.493,-3.41 0.102,-0.099 0.206,-0.196 0.329,-0.312"
                   style="fill:#074974;fill-opacity:1;fill-rule:nonzero;stroke:none"
                   id="path4050"
                   inkscape:connector-curvature="0" />
                <path
                   d="m 94.2003,1077.972 c 0.835,0.956 1.654,1.894 2.489,2.849 0.454,-0.441 0.894,-0.868 1.333,-1.295 1.117,-1.088 2.235,-2.174 3.348,-3.265 0.709,-0.696 0.909,-1.633 0.547,-2.502 -0.364,-0.876 -1.253,-1.464 -2.217,-1.434 -0.724,0.022 -1.338,0.29 -1.795,0.88 -1.172,1.511 -2.35,3.017 -3.526,4.525 -0.056,0.073 -0.109,0.148 -0.179,0.242"
                   style="fill:#074974;fill-opacity:1;fill-rule:nonzero;stroke:none"
                   id="path4052"
                   inkscape:connector-curvature="0" />
              </g>
            </g>
          </g>
        </g>
      </g>
    </g>
  </g>
</svg>
