<?xml version="1.0" encoding="utf-8"?>
<!-- Generator: Adobe Illustrator 21.1.0, SVG Export Plug-In . SVG Version: 6.00 Build 0)  -->
<svg version="1.1" id="Layer_1" xmlns="http://www.w3.org/2000/svg" xmlns:xlink="http://www.w3.org/1999/xlink" x="0px" y="0px"
	 viewBox="0 0 32 32" style="enable-background:new 0 0 32 32;" xml:space="preserve">
<style type="text/css">
	.st0{fill:#00648A;}
</style>
<path class="st0" d="M32,32H0c0-0.4,0-0.8,0-1.3c0.1-1.4,0.3-2.7,0.9-3.9c0.6-1.3,1.4-2.2,2.6-2.9c1.8-1,3.6-1.6,5.5-2.3
	c0.8-0.3,1.7-0.6,2.5-0.9c0.6-0.3,1.1-1.3,1-2c0-0.1-0.1-0.2-0.1-0.2c-1.6-2.2-2.4-4.7-2.8-7.3c-0.2-1.5-0.3-3,0-4.5
	c0.5-2.5,2.1-4.1,4.6-4.4c1.2-0.1,2.4-0.2,3.5,0.1c2.5,0.5,4,2.1,4.4,4.6c0.4,3.1-0.2,6-1.4,8.9c-0.3,0.8-0.8,1.5-1.2,2.3
	c-0.1,0.2-0.2,0.4-0.1,0.5c0,1.1,0.5,1.9,1.6,2.3c1.5,0.5,3.1,1,4.6,1.6c1,0.4,1.9,0.9,2.9,1.4c1.4,0.7,2.3,1.9,2.8,3.4
	C31.8,28.9,32,30.4,32,32"/>
<g>
</g>
<g>
</g>
<g>
</g>
<g>
</g>
<g>
</g>
<g>
</g>
<g>
</g>
<g>
</g>
<g>
</g>
<g>
</g>
<g>
</g>
<g>
</g>
<g>
</g>
<g>
</g>
<g>
</g>
</svg>
